Baltimore Crime Analysis
…
Do you see a trend? Which months of the year crime is at the lowest? Which months of the year crime rate is at the highest? Yes, the lowest month is feb and the highest is oct.

What is the structure of the column crime_time? We want to extract the hour of the crime from this column. Use the appropriate function from the lubridate function to extract hours. Google or the packages manual would probably be your best help. Save the new column back to the crime_time column.

crime <- crime %>% mutate(crime_hour = hour(crime_time))

Use any plot or tabe to compare crime rate in different times of the day (using the variable you created above). Add your code below. Most crimes happens during what time of the day?

crime %>% group_by(crime_hour) %>%
  summarize(n=n()) %>% 
arrange(-n)

## # A tibble: 25 x 2
##    crime_hour     n
##         <int> <int>
##  1         18 16724
##  2         17 16198
##  3         15 15615
##  4         16 15536
##  5         21 15403
##  6         20 15346
##  7         19 15175
##  8         22 14882
##  9         12 13974
## 10         23 13480
## #  with 15 more rows
…
